{
	"ImportPath": "powergen/crm",
	"GoVersion": "go1.12",
	"GodepVersion": "v80",
	"Deps": [
		{
			"ImportPath": "github.com/fatih/structs",
			"Comment": "v1.1.0-1-g878a968",
			"Rev": "878a968ab22548362a09bdb3322f98b00f470d46"
		},
		{
			"ImportPath": "github.com/google/uuid",
			"Comment": "v1.1.0",
			"Rev": "9b3b1e0f5f99ae461456d768e7d301a7acdaa2d8"
		},
		{
			"ImportPath": "github.com/gorilla/mux",
			"Comment": "v1.6.2-10-gdeb579d",
			"Rev": "deb579d6e030503f430978ee229008b9bc912d40"
		},
		{
			"ImportPath": "github.com/jinzhu/gorm",
			"Comment": "v1.9.1-32-g742154b",
			"Rev": "742154be9a26e849f02d296073c077e0a7c23828"
		},
		{
			"ImportPath": "github.com/jinzhu/gorm/dialects/postgres",
			"Comment": "v1.9.1-32-g742154b",
			"Rev": "742154be9a26e849f02d296073c077e0a7c23828"
		},
		{
			"ImportPath": "github.com/jinzhu/inflection",
			"Rev": "04140366298a54a039076d798123ffa108fff46c"
		},
		{
			"ImportPath": "github.com/lib/pq",
			"Comment": "v1.0.0",
			"Rev": "4ded0e9383f75c197b3a2aaa6d590ac52df6fd79"
		},
		{
			"ImportPath": "github.com/lib/pq/hstore",
			"Comment": "v1.0.0",
			"Rev": "4ded0e9383f75c197b3a2aaa6d590ac52df6fd79"
		},
		{
			"ImportPath": "github.com/lib/pq/oid",
			"Comment": "v1.0.0",
			"Rev": "4ded0e9383f75c197b3a2aaa6d590ac52df6fd79"
		},
		{
			"ImportPath": "github.com/muhoro/log",
			"Rev": "68f0c95a0c6683b6ede0f41b51db4abec751586b"
		},
		{
			"ImportPath": "github.com/muhoro/log/seq",
			"Rev": "68f0c95a0c6683b6ede0f41b51db4abec751586b"
		}
	]
}
